^C:\USERS\JOHNN\ONEDRIVE\SCHOOL\CSCI 441\LAB2\GLAD.C
/c /I"C:\USERS\JOHNN\ONEDRIVE\SCHOOL\CSCI 441\LAB2\DEPENDENCIES\INCLUDE" /ZI /JMC /nologo /W3 /WX- /diagnostics:column /sdl /Od /Oy- /D _MBCS /Gm- /EHsc /RTC1 /MDd /GS /fp:precise /permissive- /Zc:wchar_t /Zc:forScope /Zc:inline /Fo"DEBUG\\" /Fd"DEBUG\VC142.PDB" /Gd /TC /analyze- /FC C:\USERS\JOHNN\ONEDRIVE\SCHOOL\CSCI 441\LAB2\GLAD.C
^C:\USERS\JOHNN\ONEDRIVE\SCHOOL\CSCI 441\LAB2\MAIN.CPP
/c /I"C:\USERS\JOHNN\ONEDRIVE\SCHOOL\CSCI 441\LAB2\DEPENDENCIES\INCLUDE" /ZI /JMC /nologo /W3 /WX- /diagnostics:column /sdl /Od /Oy- /D _MBCS /Gm- /EHsc /RTC1 /MDd /GS /fp:precise /permissive- /Zc:wchar_t /Zc:forScope /Zc:inline /Fo"DEBUG\\" /Fd"DEBUG\VC142.PDB" /Gd /TP /analyze- /FC C:\USERS\JOHNN\ONEDRIVE\SCHOOL\CSCI 441\LAB2\MAIN.CPP
